<svg width="569" height="438" viewBox="0 0 569 438" fill="none" xmlns="http://www.w3.org/2000/svg">
<path d="M24.4636 384.571C26.468 367.013 36.4565 349.714 51.8274 344C45.7655 362.072 45.7668 381.897 51.8311 399.967C54.193 406.927 57.4852 414.4 55.2636 421.415C53.8813 425.78 50.4996 429.119 46.7196 431.207C42.9394 433.295 38.7442 434.29 34.6014 435.265L33.7861 436C27.2095 419.823 22.4593 402.128 24.4636 384.571Z" fill="#F0F0F0"/>
<path d="M51.9 343.705C42.7848 354.645 37.1195 368.383 35.7087 382.969C35.3529 386.103 35.4606 389.277 36.0277 392.376C36.6712 395.374 38.0527 398.134 40.0286 400.368C41.8319 402.49 43.9059 404.437 45.1962 406.992C45.8385 408.31 46.2135 409.759 46.2964 411.243C46.3793 412.728 46.1684 414.214 45.6774 415.605C44.5383 419.105 42.293 421.958 40.0069 424.665C37.4685 427.672 34.7875 430.752 33.7085 434.738C33.5777 435.221 32.8858 434.975 33.0163 434.493C34.8936 427.558 41.1784 423.619 44.1756 417.373C45.5742 414.458 46.1612 411.074 44.8501 407.998C43.7036 405.307 41.5665 403.297 39.7232 401.166C37.7659 399.017 36.3294 396.388 35.5394 393.507C34.8268 390.45 34.6052 387.285 34.8839 384.148C35.4062 377.075 36.9636 370.134 39.4988 363.579C42.3535 356.081 46.3846 349.162 51.4177 343.12C51.7294 342.746 52.2096 343.334 51.9 343.705Z" fill="white"/>
<path d="M36.5201 377.988C34.2515 377.42 32.2525 376.037 30.8801 374.088C29.5078 372.139 28.8514 369.75 29.0283 367.347C29.0364 367.249 29.081 367.158 29.1527 367.094C29.2244 367.029 29.3176 366.996 29.4127 367C29.5078 367.005 29.5973 367.048 29.6624 367.12C29.7276 367.192 29.7632 367.287 29.7618 367.385C29.5931 369.622 30.2046 371.847 31.4862 373.66C32.7677 375.472 34.6347 376.752 36.7503 377.269C37.2099 377.381 36.9771 378.1 36.5201 377.988Z" fill="white"/>
<path d="M39.1777 400.225C43.1133 397.548 46.0186 393.279 47.3142 388.269C47.4422 387.773 48.1117 388.025 47.9838 388.521C46.627 393.731 43.5957 398.167 39.4948 400.943C39.1038 401.207 38.7888 400.488 39.1777 400.225Z" fill="white"/>
<path d="M43.4584 357.202C44.2557 357.449 45.1346 357.563 46.0162 357.534C46.8978 357.505 47.7545 357.333 48.5093 357.034C48.8957 356.88 49.2091 357.291 48.8252 357.444C47.9889 357.772 47.0425 357.961 46.0685 357.995C45.0946 358.028 44.1229 357.906 43.2382 357.637C43.1516 357.617 43.0803 357.575 43.0388 357.521C42.9973 357.467 42.9887 357.405 43.0148 357.347C43.0444 357.29 43.1076 357.242 43.1907 357.215C43.2738 357.188 43.37 357.183 43.4584 357.202Z" fill="white"/>
<path d="M98 374.881C97.7593 375.053 97.5186 375.225 97.2777 375.404C94.0528 377.74 91.0055 380.361 88.1659 383.241C87.9431 383.459 87.7203 383.685 87.5037 383.91C80.7296 390.928 75.1971 399.27 71.1876 408.513C69.5952 412.192 68.2592 416 67.1912 419.902C65.7166 425.292 64.507 431.265 61.588 435.674C61.2881 436.138 60.9625 436.581 60.6129 437H34.2337C34.1737 436.967 34.1135 436.94 34.0532 436.907L33 436.96C33.0423 436.755 33.0902 436.543 33.1326 436.337C33.1567 436.218 33.1866 436.098 33.2107 435.979C33.2287 435.899 33.2469 435.82 33.2589 435.747C33.2648 435.72 33.271 435.694 33.2769 435.674C33.2889 435.601 33.3071 435.535 33.3192 435.469C33.5839 434.282 33.8568 433.095 34.1376 431.908C34.1376 431.902 34.1376 431.902 34.1435 431.895C36.205 422.83 39.2354 414.066 43.1713 405.788C43.2918 405.543 43.4119 405.291 43.5445 405.045C45.367 401.381 47.4584 397.886 49.7978 394.597C51.084 392.8 52.452 391.077 53.8965 389.433C57.6361 385.192 61.958 381.626 66.7038 378.865C76.165 373.362 87.1185 371.254 97.2298 374.615C97.4884 374.702 97.7414 374.788 98 374.881Z" fill="#F0F0F0"/>
<path d="M97.696 375.789C84.7875 378.654 73.0151 385.991 64.0508 396.759C62.0841 399.038 60.4513 401.65 59.2125 404.498C58.086 407.316 57.6552 410.419 57.9649 413.486C58.2023 416.352 58.7422 419.252 58.3521 422.133C58.1328 423.604 57.6377 425.007 56.8993 426.249C56.1608 427.491 55.1957 428.545 54.0672 429.341C51.3016 431.407 48.0367 432.239 44.8185 432.929C41.2454 433.695 37.5232 434.427 34.541 436.921C34.1797 437.223 33.7812 436.579 34.142 436.278C39.3304 431.938 46.2833 432.849 51.9592 429.786C54.6077 428.356 56.8868 426.026 57.5429 422.714C58.1166 419.818 57.5622 416.827 57.2993 413.927C56.9579 410.94 57.2761 407.906 58.2262 405.088C59.3312 402.179 60.8713 399.501 62.7803 397.17C67.0032 391.843 71.9493 387.292 77.4373 383.683C83.6803 379.525 90.5138 376.591 97.6421 375.008C98.0833 374.911 98.1343 375.692 97.696 375.789Z" fill="white"/>
<path d="M67.1503 392.85C65.7232 390.907 64.9616 388.46 65.0015 385.948C65.0413 383.436 65.88 381.021 67.3678 379.135C67.67 378.754 68.2139 379.261 67.9112 379.642C66.5229 381.395 65.7419 383.644 65.7091 385.984C65.6763 388.324 66.3938 390.599 67.7323 392.4C68.0227 392.792 67.4391 393.24 67.1503 392.85Z" fill="white"/>
<path d="M57.4145 412.073C62.0487 412.638 66.7018 411.213 70.4458 408.081C70.8165 407.77 71.2244 408.435 70.8541 408.746C66.9526 411.997 62.1077 413.469 57.2864 412.869C56.8269 412.811 56.9575 412.015 57.4145 412.073Z" fill="white"/>
<path d="M83.6226 380.164C84.0228 381.014 84.6072 381.741 85.3232 382.279C86.0393 382.817 86.8646 383.15 87.725 383.247C88.1664 383.295 88.0406 384.046 87.6021 383.998C86.6519 383.886 85.7409 383.518 84.9486 382.925C84.1563 382.332 83.5068 381.534 83.057 380.598C83.0079 380.514 82.9896 380.412 83.0057 380.314C83.0219 380.215 83.0713 380.127 83.1439 380.067C83.219 380.01 83.3115 379.988 83.4012 380.006C83.4908 380.024 83.5704 380.081 83.6226 380.164Z" fill="white"/>
<path d="M143.293 99.4444H15.5675C11.6205 99.4399 7.83643 97.8699 5.0455 95.0789C2.25458 92.2879 0.684697 88.5038 0.680298 84.5567V14.9913C0.684724 11.0444 2.25465 7.26036 5.04559 4.4695C7.83654 1.67864 11.6206 0.108854 15.5675 0.104553H143.293C147.24 0.108857 151.024 1.67863 153.815 4.46948C156.606 7.26034 158.176 11.0443 158.18 14.9913V84.5567C158.176 88.5037 156.606 92.2878 153.815 95.0789C151.024 97.8699 147.24 99.4399 143.293 99.4444Z" fill="#E6E6E6"/>
<path d="M338.293 99.4444H210.568C206.621 99.4399 202.836 97.8699 200.046 95.0789C197.255 92.2879 195.685 88.5038 195.68 84.5567V14.9913C195.685 11.0444 197.255 7.26036 200.046 4.4695C202.837 1.67864 206.621 0.108854 210.568 0.104553H338.293C342.24 0.108852 346.024 1.67863 348.815 4.46948C351.606 7.26034 353.176 11.0443 353.18 14.9913V84.5567C353.176 88.5037 351.606 92.2878 348.815 95.0789C346.024 97.8699 342.24 99.4399 338.293 99.4444Z" fill="#E6E6E6"/>
<path d="M533.293 99.4444H405.568C401.62 99.4399 397.836 97.8699 395.045 95.0789C392.255 92.2879 390.685 88.5038 390.68 84.5567V14.9913C390.685 11.0444 392.255 7.26036 395.046 4.4695C397.836 1.67864 401.621 0.108854 405.568 0.104553H533.293C537.24 0.108852 541.024 1.67863 543.815 4.46948C546.606 7.26034 548.176 11.0443 548.18 14.9913V84.5567C548.176 88.5037 546.606 92.2878 543.815 95.0789C541.024 97.8699 537.24 99.4399 533.293 99.4444Z" fill="#E6E6E6"/>
<path d="M545.312 116.245C557.91 116.245 568.124 106.032 568.124 93.4331C568.124 80.8342 557.91 70.6208 545.312 70.6208C532.713 70.6208 522.499 80.8342 522.499 93.4331C522.499 106.032 532.713 116.245 545.312 116.245Z" fill="#F9DE2E"/>
<path d="M554.784 91.5174H547.028V83.7613C547.028 83.5216 546.981 83.2843 546.889 83.0628C546.798 82.8414 546.663 82.6402 546.494 82.4707C546.324 82.3013 546.123 82.1668 545.902 82.0751C545.68 81.9834 545.443 81.9362 545.203 81.9362C544.964 81.9362 544.726 81.9834 544.505 82.0751C544.283 82.1668 544.082 82.3013 543.913 82.4707C543.743 82.6402 543.609 82.8414 543.517 83.0628C543.425 83.2843 543.378 83.5216 543.378 83.7613V91.5174H535.622C535.382 91.5174 535.145 91.5646 534.924 91.6563C534.702 91.7481 534.501 91.8825 534.332 92.052C534.162 92.2214 534.028 92.4226 533.936 92.6441C533.844 92.8655 533.797 93.1028 533.797 93.3425C533.797 93.5822 533.844 93.8195 533.936 94.041C534.028 94.2624 534.162 94.4636 534.332 94.6331C534.501 94.8025 534.702 94.937 534.924 95.0287C535.145 95.1204 535.382 95.1676 535.622 95.1676H543.378V102.924C543.378 103.163 543.425 103.401 543.517 103.622C543.609 103.844 543.743 104.045 543.913 104.214C544.082 104.384 544.283 104.518 544.505 104.61C544.726 104.702 544.964 104.749 545.203 104.749C545.687 104.749 546.152 104.557 546.494 104.214C546.836 103.872 547.028 103.408 547.028 102.924V95.1676H554.784C555.024 95.1676 555.261 95.1203 555.483 95.0286C555.704 94.9369 555.905 94.8025 556.075 94.633C556.244 94.4635 556.379 94.2623 556.471 94.0409C556.562 93.8195 556.61 93.5821 556.609 93.3424C556.61 93.1028 556.562 92.8654 556.471 92.644C556.379 92.4226 556.244 92.2214 556.075 92.0519C555.905 91.8824 555.704 91.748 555.483 91.6563C555.261 91.5646 555.024 91.5174 554.784 91.5174Z" fill="white"/>
<path d="M152.312 114.245C164.91 114.245 175.124 104.032 175.124 91.4331C175.124 78.8342 164.91 68.6208 152.312 68.6208C139.713 68.6208 129.499 78.8342 129.499 91.4331C129.499 104.032 139.713 114.245 152.312 114.245Z" fill="#F9DE2E"/>
<path d="M161.784 89.5174H154.028V81.7613C154.028 81.5216 153.981 81.2843 153.889 81.0628C153.798 80.8414 153.663 80.6402 153.494 80.4707C153.324 80.3013 153.123 80.1668 152.902 80.0751C152.68 79.9834 152.443 79.9362 152.203 79.9362C151.964 79.9362 151.726 79.9834 151.505 80.0751C151.283 80.1668 151.082 80.3013 150.913 80.4707C150.743 80.6402 150.609 80.8414 150.517 81.0628C150.425 81.2843 150.378 81.5216 150.378 81.7613V89.5174H142.622C142.382 89.5174 142.145 89.5646 141.924 89.6563C141.702 89.7481 141.501 89.8825 141.331 90.052C141.162 90.2214 141.028 90.4226 140.936 90.6441C140.844 90.8655 140.797 91.1028 140.797 91.3425C140.797 91.8265 140.989 92.2908 141.331 92.6331C141.674 92.9753 142.138 93.1676 142.622 93.1676H150.378V100.924C150.378 101.163 150.425 101.401 150.517 101.622C150.609 101.844 150.743 102.045 150.913 102.214C151.082 102.384 151.283 102.518 151.505 102.61C151.726 102.702 151.964 102.749 152.203 102.749C152.443 102.749 152.68 102.702 152.902 102.61C153.123 102.518 153.324 102.384 153.494 102.214C153.663 102.045 153.798 101.844 153.889 101.622C153.981 101.401 154.028 101.163 154.028 100.924V93.1676H161.784C162.024 93.1676 162.261 93.1203 162.483 93.0286C162.704 92.9369 162.906 92.8025 163.075 92.633C163.244 92.4635 163.379 92.2623 163.471 92.0409C163.562 91.8195 163.61 91.5821 163.61 91.3424C163.61 90.8584 163.417 90.3942 163.075 90.0519C162.733 89.7096 162.268 89.5174 161.784 89.5174Z" fill="white"/>
<path d="M546.862 438H2.13759C1.83536 437.999 1.54603 437.893 1.33286 437.705C1.11968 437.518 1 437.264 1 437C1 436.736 1.11968 436.482 1.33286 436.295C1.54603 436.107 1.83536 436.001 2.13759 436H546.862C547.165 436.001 547.454 436.107 547.667 436.295C547.88 436.482 548 436.736 548 437C548 437.264 547.88 437.518 547.667 437.705C547.454 437.893 547.165 437.999 546.862 438Z" fill="#E4E4E4"/>
<path d="M480.347 437C480.405 436.8 486.092 416.825 476.028 399L475 399.748C484.743 417.002 479.245 436.369 479.189 436.562L480.347 437Z" fill="#E4E4E4"/>
<path d="M469.67 401.82C469.88 402.983 470.284 404.085 470.859 405.066C471.434 406.046 472.169 406.884 473.021 407.533C473.874 408.181 474.827 408.628 475.827 408.846C476.828 409.064 477.855 409.05 478.851 408.805C479.846 408.56 480.791 408.088 481.63 407.417C482.47 406.746 483.188 405.888 483.743 404.893C484.299 403.897 484.681 402.784 484.868 401.616C485.055 400.448 485.043 399.249 484.833 398.086C483.95 393.198 476.464 381.031 472.277 382.062C468.089 383.093 468.787 396.931 469.67 401.82Z" fill="#E4E4E4"/>
<path d="M471.008 424.433C474.577 429.127 480.962 429 480.962 429C480.962 429 481.561 421.261 477.992 416.567C474.423 411.873 468.038 412 468.038 412C468.038 412 467.439 419.739 471.008 424.433Z" fill="#E4E4E4"/>
<path d="M524.458 437C524.583 436.527 536.769 389.216 515.202 347L513 348.771C533.877 389.637 522.097 435.505 521.976 435.963L524.458 437Z" fill="#E4E4E4"/>
<path d="M499.508 352.985C500.463 358.549 503.175 363.419 507.049 366.523C510.922 369.627 515.64 370.712 520.163 369.538C524.687 368.365 528.646 365.029 531.171 360.265C533.695 355.501 534.578 349.699 533.626 344.134C531.639 332.545 514.794 303.702 505.372 306.146C495.951 308.59 497.521 341.396 499.508 352.985Z" fill="#E4E4E4"/>
<path d="M502.942 407.985C511.179 419.306 525.913 418.999 525.913 418.999C525.913 418.999 527.294 400.336 519.058 389.015C510.821 377.694 496.087 378.001 496.087 378.001C496.087 378.001 494.706 396.664 502.942 407.985Z" fill="#E4E4E4"/>
<path d="M175 432.75H382.75" stroke="#F9DE2E" stroke-width="10" stroke-linecap="round" stroke-linejoin="round"/>
<path d="M175 271.167V282.708C175 291.891 178.648 300.698 185.141 307.192C191.635 313.685 200.442 317.333 209.625 317.333C218.808 317.333 227.615 313.685 234.109 307.192C240.602 300.698 244.25 291.891 244.25 282.708M175 271.167H382.75M175 271.167L198.083 225H359.667L382.75 271.167M244.25 282.708V271.167M244.25 282.708C244.25 291.891 247.898 300.698 254.391 307.192C260.885 313.685 269.692 317.333 278.875 317.333C288.058 317.333 296.865 313.685 303.359 307.192C309.852 300.698 313.5 291.891 313.5 282.708M313.5 282.708V271.167M313.5 282.708C313.5 291.891 317.148 300.698 323.641 307.192C330.135 313.685 338.942 317.333 348.125 317.333C357.308 317.333 366.115 313.685 372.609 307.192C379.102 300.698 382.75 291.891 382.75 282.708V271.167" stroke="#F9DE2E" stroke-width="10" stroke-linecap="round" stroke-linejoin="round"/>
<path d="M198.083 432.75V315.602" stroke="#F9DE2E" stroke-width="10" stroke-linecap="round" stroke-linejoin="round"/>
<path d="M359.667 432.75V315.602" stroke="#F9DE2E" stroke-width="10" stroke-linecap="round" stroke-linejoin="round"/>
<path d="M244.25 432.75V386.583C244.25 380.461 246.682 374.59 251.011 370.261C255.34 365.932 261.211 363.5 267.333 363.5H290.417C296.539 363.5 302.41 365.932 306.739 370.261C311.068 374.59 313.5 380.461 313.5 386.583V432.75" stroke="#F9DE2E" stroke-width="10" stroke-linecap="round" stroke-linejoin="round"/>
<path d="M414.5 225C431.897 225 446 210.897 446 193.5C446 176.103 431.897 162 414.5 162C397.103 162 383 176.103 383 193.5C383 210.897 397.103 225 414.5 225Z" fill="#F9DE2E"/>
<path d="M427.58 190.855H416.87V180.145C416.87 179.814 416.805 179.486 416.678 179.18C416.552 178.875 416.366 178.597 416.132 178.363C415.898 178.129 415.62 177.943 415.315 177.816C415.009 177.69 414.681 177.625 414.35 177.625C413.682 177.625 413.041 177.89 412.568 178.363C412.095 178.835 411.83 179.476 411.83 180.145V190.855H401.12C400.452 190.855 399.811 191.12 399.338 191.593C398.865 192.066 398.6 192.707 398.6 193.375C398.6 193.706 398.665 194.034 398.792 194.339C398.918 194.645 399.104 194.923 399.338 195.157C399.572 195.391 399.85 195.577 400.156 195.703C400.461 195.83 400.789 195.895 401.12 195.895H411.83V206.605C411.83 206.936 411.895 207.264 412.022 207.57C412.148 207.875 412.334 208.153 412.568 208.387C412.802 208.621 413.08 208.807 413.386 208.933C413.692 209.06 414.019 209.125 414.35 209.125C415.019 209.125 415.66 208.86 416.132 208.387C416.605 207.915 416.87 207.274 416.87 206.605V195.895H427.581C428.249 195.895 428.89 195.63 429.363 195.157C429.835 194.684 430.101 194.043 430.101 193.375C430.101 193.044 430.036 192.716 429.909 192.411C429.782 192.105 429.597 191.827 429.363 191.593C429.129 191.359 428.851 191.173 428.545 191.047C428.239 190.92 427.911 190.855 427.58 190.855Z" fill="white"/>
</svg>
